[
    {
        "edit_pilot_name": "bae",
        "edit_project_name": "Test Automation 3 Edit",
        "edit_project_purpose": "Demonstration",
        "edit_uas_regulation": "107",
        "edit_project_start_date": "06/20/2019",
        "edit_project_end_date": "12/30/2019",
        "edit_field_time": "32",
        "edit_frequency": "Daily",
        "edit_expected_range": "All Day",
        "edit_latitude": "38.5490945",
        "edit_longitude": "-121.7085439988",
        "edit_max_distance": "850",
        "edit_flight_altitude": "444",
        "edit_condition_index": "1",
        "edit_flightProcedure": "Testing Mission Profile (Step by Step Flight Procedure) Edit",
        "edit_op_restriction_rain": "Rain/Thunderstorm",
        "edit_op_restriction_trees": "Tall trees",
        "edit_observer": "Tony Stark, Scarlett Johansson will take care of drones path way(Edit)",
        "edit_risk_assessment": "the risks associate with this flight will affect your operation(Edit)",
        "edit_user_comments": "Test automation insert comments(Edit)",
        "edit_project_status":"PENDING_REVIEW",
        "approve_project_status":"In Review",
        "edit_reviewer_comments": "Test automation request reviewer is done"

    }
]